dump.vcd
$date
   Tue Aug 13 14:30:10 2019
$end
$version
  2017.4
$end
$timescale
  1ps
$end
$scope module tb_Module $end
$var reg 1 ! clk $end
$var reg 1 " reset $end
$var reg 1 # sync_signal $end
$var reg 1 $ input_ref $end
$var wire 4 % count1_op [3:0] $end
$var wire 4 & count2_op [3:0] $end
$var wire 4 ' count3_op [3:0] $end
$scope module a $end
$var wire 1 ( clk $end
$var wire 1 ) reset $end
$var wire 1 * sync_signal $end
$var wire 1 + input_ref $end
$var wire 4 , count1_op [3:0] $end
$var wire 4 - count2_op [3:0] $end
$var wire 4 . count3_op [3:0] $end
$var wire 1 / sync_status $end
$var wire 4 0 count1 [3:0] $end
$var wire 4 1 count2 [3:0] $end
$var wire 4 2 count3 [3:0] $end
$var wire 5 3 state [4:0] $end
$var wire 1 4 count_ref $end
$upscope $end
$upscope $end
$enddefinitions $end
#0
$dumpvars
0!
0"
0#
0$
b0 %
b0 &
b0 '
0(
0)
0*
0+
b0 ,
b0 -
b0 .
x/
b0 0
b0 1
b0 2
b0 3
x4
$end
#5000
1!
1(
b1 3
#10000
0!
1"
0(
1)
#15000
1!
1(
#20000
0!
0"
0(
0)
#25000
1!
1(
#30000
0!
1#
1$
0(
1*
1+
#35000
1!
1(
1/
b10 3
14
#40000
0!
0#
0(
0*
#45000
1!
b1 %
1(
b1 ,
b1 0
#50000
0!
0(
#55000
1!
b10 %
1(
b10 ,
b10 0
#60000
0!
0(
#65000
1!
b11 %
1(
b11 ,
b11 0
#70000
0!
0(
#75000
1!
b100 %
1(
b100 ,
b100 0
#80000
0!
0$
0(
0+
#85000
1!
b1 &
1(
b1 -
b1 1
b100 3
04
#90000
0!
0(
#95000
1!
b10 &
1(
b10 -
b10 1
#100000
0!
0(
#105000
1!
b11 &
1(
b11 -
b11 1
#110000
0!
0(
#115000
1!
b100 &
1(
b100 -
b100 1
#120000
0!
0(
#125000
1!
b101 &
1(
b101 -
b101 1
#130000
0!
0(
#135000
1!
b110 &
1(
b110 -
b110 1
#140000
0!
0(
#145000
1!
b111 &
1(
b111 -
b111 1
#150000
0!
1$
0(
1+
#155000
1!
b1 '
1(
b1 .
b1 2
b1000 3
14
#160000
0!
0(
#165000
1!
b10 '
1(
b10 .
b10 2
#170000
0!
0(
#175000
1!
b11 '
1(
b11 .
b11 2
#180000
0!
0(
#185000
1!
b100 '
1(
b100 .
b100 2
#190000
0!
1#
0(
1*
#195000
1!
1(
b10000 3
#200000
0!
0#
0(
0*
#205000
1!
b0 %
b0 &
b0 '
1(
b0 ,
b0 -
b0 .
b0 0
b0 1
b0 2
b1 3
#210000
0!
1#
0$
0(
1*
0+
#215000
1!
1(
b10 3
04
#220000
0!
0#
0(
0*
#225000
1!
b1 %
1(
b1 ,
b1 0
#230000
0!
0(
#235000
1!
b10 %
1(
b10 ,
b10 0
#240000
0!
0(
#245000
1!
b11 %
1(
b11 ,
b11 0
#250000
0!
0(
#255000
1!
b100 %
1(
b100 ,
b100 0
#260000
0!
0(
#265000
1!
b101 %
1(
b101 ,
b101 0
#270000
0!
1$
0(
1+
#275000
1!
b1 &
1(
b1 -
b1 1
b100 3
14
#280000
0!
0(
#285000
1!
b10 &
1(
b10 -
b10 1
#290000
0!
0(
#295000
1!
b11 &
1(
b11 -
b11 1
#300000
0!
0(
#305000
1!
b100 &
1(
b100 -
b100 1
#310000
0!
0$
0(
0+
#315000
1!
b1 '
1(
b1 .
b1 2
b1000 3
04
#320000
0!
1#
0(
1*
#325000
1!
1(
b10000 3
#330000
0!
0#
0(
0*
#335000
1!
b0 %
b0 &
b0 '
1(
b0 ,
b0 -
b0 .
b0 0
b0 1
b0 2
b1 3
#340000
0!
1"
0(
1)
#345000
1!
1(
#350000
0!
0"
0(
0)
#355000
1!
1(
#360000
0!
0(
#365000
1!
1(
#370000
0!
0(
#375000
1!
1(
#380000
0!
0(
#385000
1!
1(
#390000
0!
0(
#395000
1!
1(
#400000
0!
1#
0$
0(
1*
#405000
1!
1(
b10 3
#410000
0!
0#
0(
0*
#415000
1!
b1 %
1(
b1 ,
b1 0
#420000
0!
0(
#425000
1!
b10 %
1(
b10 ,
b10 0
#430000
0!
0(
#435000
1!
b11 %
1(
b11 ,
b11 0
#440000
0!
0(
#445000
1!
b100 %
1(
b100 ,
b100 0
#450000
0!
1$
0(
1+
#455000
1!
b1 &
1(
b1 -
b1 1
b100 3
14
#460000
0!
0(
#465000
1!
b10 &
1(
b10 -
b10 1
#470000
0!
0(
#475000
1!
b11 &
1(
b11 -
b11 1
#480000
0!
0(
#485000
1!
b100 &
1(
b100 -
b100 1
#490000
0!
0(
#495000
1!
b101 &
1(
b101 -
b101 1
#500000
0!
1#
0(
1*
#505000
1!
1(
b10000 3
#510000
0!
0#
0(
0*
#515000
1!
b0 %
b0 &
1(
b0 ,
b0 -
b0 0
b0 1
b1 3
#520000
0!
1#
0(
1*
#525000
1!
1(
b10 3
#530000
0!
0#
1$
0(
0*
#535000
1!
b1 %
1(
b1 ,
b1 0
#540000
0!
0(
#545000
1!
b10 %
1(
b10 ,
b10 0
#550000
0!
0(
#555000
1!
b11 %
1(
b11 ,
b11 0
#560000
0!
0(
#565000
1!
b100 %
1(
b100 ,
b100 0
#570000
0!
0$
0(
0+
#575000
1!
b1 &
1(
b1 -
b1 1
b100 3
04
#580000
0!
0(
#585000
1!
b10 &
1(
b10 -
b10 1
#590000
0!
0(
#595000
1!
b11 &
1(
b11 -
b11 1
#600000
0!
0(
#605000
1!
b100 &
1(
b100 -
b100 1
#610000
0!
0(
#615000
1!
b101 &
1(
b101 -
b101 1
#620000
0!
0(
#625000
1!
b110 &
1(
b110 -
b110 1
#630000
0!
0(
#635000
1!
b111 &
1(
b111 -
b111 1
#640000
0!
1$
0(
1+
#645000
1!
b1 '
1(
b1 .
b1 2
b1000 3
14
#650000
0!
0(
#655000
1!
b10 '
1(
b10 .
b10 2
#660000
0!
0(
#665000
1!
b11 '
1(
b11 .
b11 2
#670000
0!
0(
#675000
1!
b100 '
1(
b100 .
b100 2
#680000
0!
0(
#685000
1!
b101 '
1(
b101 .
b101 2
#690000
0!
0(
#695000
1!
b110 '
1(
b110 .
b110 2
#700000
0!
0(
#705000
1!
b111 '
1(
b111 .
b111 2
#710000
0!
0$
0(
0+
#715000
1!
1(
b10000 3
#720000
0!
0(
#725000
1!
b0 %
b0 &
b0 '
1(
b0 ,
b0 -
b0 .
b0 0
b0 1
b0 2
b1 3
#730000
0!
0(
#735000
1!
1(
#740000
0!
1#
0(
1*
#745000
1!
1(
b10 3
04
#750000
0!
0(
#755000
1!
1(
b10000 3
#760000
0!
0(
#765000
1!
1(
b1 3
#770000
0!
0(
#775000
1!
1(
b10 3
